Examples in R • concurve
…
and look at the differences between the two vectors. We’ll plug these vectors and the dataframe they’re in inside of the curve_mean() function. Here, the default method involves calculating CIs using the Wald method.

intervalsdf <- curve_mean(GroupA, GroupB,
  data = RandomData, method = "default"
)

Each of the functions within concurve will generally produce a list with three items, and the first will usually contain the function of interest.

tibble::tibble(intervalsdf[[1]])
#> # A tibble: 10,000 x 1
#>    `intervalsdf[[1… $upper.limit $intrvl.width $intrvl.level  $cdf $pvalue
#>               <dbl>        <dbl>         <dbl>         <dbl> <dbl>   <dbl>
#>  1           -0.113       -0.113     0              0        0.5     1    
#>  2           -0.113       -0.113     0.0000154      0.0001   0.500   1.000
#>  3           -0.113       -0.113     0.0000309      0.0002   0.500   1.000
#>  4           -0.113       -0.113     0.0000463      0.000300 0.500   1.000
#>  5           -0.113       -0.113     0.0000617      0.0004   0.500   1.000
#>  6           -0.113       -0.113     0.0000772      0.0005   0.500   1.000
#>  7           -0.113       -0.113     0.0000926      0.000600 0.500   0.999
#>  8           -0.113       -0.113     0.000108       0.0007   0.500   0.999
#>  9           -0.113       -0.112     0.000123       0.0008   0.500   0.999
#> 10           -0.113       -0.112     0.000139       0.0009   0.500   0.999
#> # … with 9,990 more rows, and 1 more variable: $svalue <dbl>
…
We’ll use a simple example taken directly from the ProfileLikelihood documentation where we’ll calculate the likelihoods from a glm model

data(dataglm)
xx <- profilelike.glm(y ~ x1 + x2, data=dataglm, profile.theta="group",
family=binomial(link="logit"), length=500, round=2)
#> Warning message: provide lo.theta and hi.theta

Then, we’ll use curve_lik() on the object that the ProfileLikelihood package created.

lik <- curve_lik(xx, dataglm)
tibble::tibble(lik[[1]])
#> # A tibble: 500 x 1
#>    `lik[[1]]`$values $likelihood $loglikelihood  $support $deviancestat
#>                <dbl>       <dbl>          <dbl>     <dbl>         <dbl>
#>  1             -1.41    9.26e-21          -9.79 0.0000560          9.79
#>  2             -1.40    1.00e-20          -9.71 0.0000606          9.71
#>  3             -1.39    1.08e-20          -9.63 0.0000655          9.63
#>  4             -1.38    1.17e-20          -9.56 0.0000708          9.56
#>  5             -1.37    1.26e-20          -9.48 0.0000765          9.48
#>  6             -1.35    1.37e-20          -9.40 0.0000826          9.40
#>  7             -1.34    1.47e-20          -9.32 0.0000892          9.32
#>  8             -1.33    1.59e-20          -9.25 0.0000963          9.25
#>  9             -1.32    1.72e-20          -9.17 0.000104           9.17
#> 10             -1.31    1.85e-20          -9.10 0.000112           9.10
#> # … with 490 more rows
…
