Meta-analytic Consonance Function — curve_meta • concurve
…
# Pool the data using a particular method. Here "FE" is the fixed-effects model

res <- rma(yi, vi,
  data = dat, slab = paste(StudyName, sep = ", "),
  method = "FE", digits = 2
)

# Calculate the intervals using the metainterval function

metaf <- curve_meta(res)

tibble::tibble(metaf[[1]])
#> # A tibble: 10,000 x 1
#>    `metaf[[1]]`$lo… $upper.limit $intrvl.width $intrvl.level  $cdf $pvalue
#>               <dbl>        <dbl>         <dbl>         <dbl> <dbl>   <dbl>
#>  1           0.0617       0.0617     0              0        0.5     1    
#>  2           0.0616       0.0617     0.0000562      0.0001   0.500   1.000
#>  3           0.0616       0.0617     0.000112       0.0002   0.500   1.000
#>  4           0.0616       0.0617     0.000169       0.000300 0.500   1.000
#>  5           0.0615       0.0618     0.000225       0.0004   0.500   1.000
#>  6           0.0615       0.0618     0.000281       0.0005   0.500   1.000
#>  7           0.0615       0.0618     0.000337       0.000600 0.500   0.999
#>  8           0.0615       0.0619     0.000394       0.0007   0.500   0.999
#>  9           0.0614       0.0619     0.000450       0.0008   0.500   0.999
#> 10           0.0614       0.0619     0.000506       0.0009   0.500   0.999
#> # … with 9,990 more rows, and 1 more variable: $svalue <dbl>
…
