Consonance Functions for Correlations — curve_corr • concurve
…
    Value

    A list with 3 items where the dataframe of values is in the first
object, the values needed to calculate the density function in the second,
and the table for the values in the third if table = TRUE.

    Examples

GroupA <- rnorm(50)
GroupB <- rnorm(50)
joe <- curve_corr(x = GroupA, y = GroupB, alternative = "two.sided", method = "pearson")
tibble::tibble(joe[[1]])
#> # A tibble: 10,000 x 1
#>    `joe[[1]]`$lowe… $upper.limit $intrvl.width $intrvl.level  $cdf $pvalue
#>               <dbl>        <dbl>         <dbl>         <dbl> <dbl>   <dbl>
#>  1            0.106        0.106     0              0        0.5     1    
#>  2            0.106        0.106     0.0000362      0.0001   0.500   1.000
#>  3            0.106        0.106     0.0000723      0.0002   0.500   1.000
#>  4            0.106        0.106     0.000108       0.000300 0.500   1.000
#>  5            0.106        0.106     0.000145       0.0004   0.500   1.000
#>  6            0.106        0.106     0.000181       0.0005   0.500   1.000
#>  7            0.106        0.106     0.000217       0.000600 0.500   0.999
#>  8            0.106        0.106     0.000253       0.0007   0.500   0.999
#>  9            0.106        0.106     0.000289       0.0008   0.500   0.999
#> 10            0.106        0.106     0.000325       0.0009   0.500   0.999
#> # … with 9,990 more rows, and 1 more variable: $svalue <dbl>
…
